{
  "project_info": {
    "project_number": "1062263314962",
    "firebase_url": "https://polyglot-chat.firebaseio.com",
    "project_id": "polyglot-chat",
    "storage_bucket": "polyglot-chat.appspot.com"
  },
  "client": [
    {
      "client_info": {
        "mobilesdk_app_id": "1:1062263314962:android:593f7a578e3cb0e2",
        "android_client_info": {
          "package_name": "com.softvision.polyglotchat"
        }
      },
      "oauth_client": [
        {
          "client_id": "1062263314962-tq44656v8frnd6fh56pest4shhjtql1b.apps.googleusercontent.com",
          "client_type": 3
        }
      ],
      "api_key": [
        {
          "current_key": "AIzaSyCWM2Gwj0VcSokaMsGKi3ig8wxDAaHSxFI"
        }
      ],
      "services": {
        "analytics_service": {
          "status": 1
        },
        "appinvite_service": {
          "status": 1,
          "other_platform_oauth_client": []
        },
        "ads_service": {
          "status": 2
        }
      }
    }
  ],
  "configuration_version": "1"
}